<?xml version="1.0" standalone="no"?>
<!DOCTYPE svg PUBLIC "-//W3C//DTD SVG 1.1//EN" "http://www.w3.org/Graphics/SVG/1.1/DTD/svg11.dtd">
<svg xmlns="http://www.w3.org/2000/svg">
<metadata>Copyright (C) 2017 by original authors @ fontello.com</metadata>
<defs>
<font id="fontello" horiz-adv-x="1000" >
<font-face font-family="fontello" font-weight="400" font-stretch="normal" units-per-em="1000" ascent="850" descent="-150" />
<missing-glyph horiz-adv-x="1000" />
<glyph glyph-name="search" unicode="&#xe800;" d="M956-150l0 0c-18 0-31 6-43 19l-300 300c-63-50-144-75-225-75-219 0-388 169-388 381 0 206 169 375 381 375 207 0 382-169 382-375 0-81-25-162-75-225l300-300c12-13 12-38 12-44 0 0 0-31-12-44-7-6-19-12-32-12z m-575 900c-156 0-281-125-281-281s125-281 281-281 282 125 282 281-125 281-282 281z" horiz-adv-x="1000" />

<glyph glyph-name="menu" unicode="&#xe801;" d="M56-69c-31 0-56 25-56 56s25 57 56 57h888c31 0 56-25 56-57s-25-56-56-56l-888 0 0 0z m0 363c-31 0-56 25-56 56s25 56 56 56h888c31 0 56-25 56-56s-25-56-56-56h-888z m0 362c-31 0-56 25-56 57s25 56 56 56h888c31 0 56-25 56-56s-25-57-56-57h-888z" horiz-adv-x="1000" />

<glyph glyph-name="close" unicode="&#xe802;" d="M581 350l400 400c25 25 25 63 0 81-25 25-62 25-81 0l-400-400-400 400c-25 25-62 25-81 0-25-25-25-62 0-81l400-400-400-400c-25-25-25-63 0-81 25-25 62-25 81 0l400 400 400-400c25-25 63-25 81 0 25 25 25 62 0 81l-400 400z" horiz-adv-x="1000" />

<glyph glyph-name="arrow_down" unicode="&#xe803;" d="M500 100c0 0 0 0 0 0-12 0-25 6-37 13l-388 406c-6 6-12 19-12 31 0 31 25 50 50 50 12 0 25-6 37-12l350-369 350 369c13 6 25 12 38 12 12 0 25-6 31-12 19-19 19-50 0-69l-388-400c-6-13-18-19-31-19 0 0 0 0 0 0l0 0z" horiz-adv-x="1000" />

<glyph glyph-name="logo" unicode="&#xe804;" d="M767 627l-60-38c78-106 70-280 0-389l60-35c92 130 88 332 0 462m-127-77l-92-60c42-57 35-135 0-195l88-56c64 102 67 212 4 311m-251 39c-142-195-50-400 138-520 21 25 42 50 60 78-138 88-227 244-110 389l-88 53z m-156 38c-88-130-88-332 0-462l60 35c-70 109-74 283 0 389l-60 38z" horiz-adv-x="1000" />

<glyph glyph-name="arrow_left" unicode="&#xe805;" d="M260 850l-20-20 500-503 20 20z m470-493l-480-483a15 15 0 0 1 0-20 14 14 0 0 1 20 0l480 483a15 15 0 0 1 0 20 14 14 0 0 1-20 0z" horiz-adv-x="1000" />

<glyph glyph-name="arrow_right" unicode="&#xe806;" d="M240 340l20-20 486 518-20 20-486-518z m30 10c-6 6-14 6-20 0-6-6-4-14 0-20l494-468c6-6 14-6 20 0 6 6 4 14 0 20l-494 468c0 0 0 0 0 0z" horiz-adv-x="1000" />

<glyph glyph-name="download" unicode="&#xe807;" d="M493 285c2-3 5-5 8-5 4 0 7 2 9 5l181 246c1 2 2 5 1 7 0 2-2 4-4 4h-117v250c0 5-1 10-4 13-2 4-5 5-8 5h-115c-3 0-6-2-9-5-2-4-3-8-3-13v-251h-118c-1 0-3-1-4-4 0-2 0-5 1-6l182-246 0 0z m445-65l-142 98h-88l148-120-163 2c-4 0-11-4-13-8l-46-110h-265l-46 110c-2 4-9 8-13 8h-163l148 118h-89l-141-98c-22-14-36-44-30-68l27-144c6-25 32-45 58-45h763c26 0 52 20 58 45l26 144c6 24-7 55-29 68l0 0 0 0 0 0z" horiz-adv-x="1021" />

<glyph glyph-name="edit" unicode="&#xe808;" d="M825 537l-134 134-403-403h0v0l0 0 0 0-65-199 199 65 0 0 0 0h0v0l403 403z m46 45l-135 135 89 88 134-134-88-89z m-89-732h-563c-59 0-114 22-155 64-41 41-64 96-64 155v563c0 58 23 113 64 154 42 42 96 64 155 64h281c25 0 46-20 46-45s-21-46-46-46h-281c-34 0-66-13-91-37s-37-56-37-91v-562c0-34 13-66 37-91 24-24 57-37 91-37h562c34 0 66 13 90 37 24 25 38 57 38 91v281c0 25 20 46 45 46s46-21 46-46v-281c0-59-23-114-64-155-41-41-96-64-154-64z" horiz-adv-x="1000" />

<glyph glyph-name="call" unicode="&#xe809;" d="M971 14c14 10 13 25-1 34l-196 129c-9 6-23 5-31-3 0 0-68-62-85-71-17-8-125-5-244 114-119 119-160 256-160 277 0 22 87 91 87 91 9 7 11 21 5 30l-126 205c-9 14-25 15-36 3l-155-180c-7-8-12-24-10-35 0 0 12-211 285-483s454-256 454-256c11 0 27 5 36 11l177 134 0 0z m-250 336c-17 0-31 14-31 32 0 87-71 158-158 158-18 0-32 14-32 31s14 32 32 32c122 0 221-99 221-221 0-18-14-32-32-32l0 0z m114 19c-18 0-32 14-32 32 0 139-113 252-252 252-18 0-32 14-32 32s14 31 32 31c174 0 316-141 316-316 0-17-15-31-32-31z m82 51c0 191-156 347-347 347-18 0-32 14-32 32s14 31 32 31c226 0 410-184 410-410 0-18-14-32-31-32-18 0-32 14-32 32l0 0z" horiz-adv-x="1000" />

<glyph glyph-name="play" unicode="&#xe80a;" d="M502 816c-262 0-474-212-474-473s212-474 474-474 473 213 473 474-212 473-473 473z m0-902c-237 0-429 192-429 429s192 428 429 428 428-191 428-428-192-429-428-429z m-97 267l281 162-281 162v-324z" horiz-adv-x="1000" />

<glyph glyph-name="arrow_double" unicode="&#xe80c;" d="M0 850m844-881l-344 350-344-344-43 44 387 387 394-393-50-44z m0 319l-344 350-344-350-50 50 394 387 394-394-50-43z" horiz-adv-x="1000" />

<glyph glyph-name="weibo" unicode="&#xe80d;" d="M756 325c-39 8-20 28-20 28s39 64-8 111c-59 58-197-8-197-8-53-17-39 8-31 50 0 47-17 130-158 83-142-50-264-220-264-220-86-113-75-202-75-202 22-195 228-248 389-261 169-14 397 58 466 205 61 147-64 206-102 214m-359-364c-166-8-303 75-303 189 0 111 137 203 303 208 167 9 303-61 303-172 0-111-136-217-303-225m-33 325c-170-19-150-178-150-178s-3-50 44-75c98-52 200-22 250 45 56 66 25 228-144 208m-42-222c-30-3-55 14-55 42 0 25 22 52 52 55 37 3 59-17 59-44 0-25-25-50-56-53m100 83c-11-8-25-5-30 3-6 8-3 25 8 33 11 9 25 6 31-2 5-9 0-25-9-34m575 267c0 3 0 5 0 8 3 14 3 31 3 45 0 166-136 300-300 300-22 0-42-20-42-42 0-22 20-42 42-42 119 0 217-97 217-216 0-14 0-28-3-39l0 0c0-3 0-3 0-6 0-22 19-41 42-41 22 0 38 13 41 33l0 0c0 0 0 0 0 0m-130 39c0 5 0 11 0 16 0 92-75 167-167 167-17 0-33-17-33-36 0-19 16-33 33-33 53 0 97-45 97-98 0-5 0-8 0-13l0 0c0 0 0-3 0-3 0-20 17-34 34-34 16 0 30 14 33 31l0 0c0 0 0 3 0 3 3-3 3-3 3 0 0 0 0 0 0 0" horiz-adv-x="1000" />

<glyph glyph-name="weichat" unicode="&#xe80e;" d="M694 503c6 0 12 0 14 0-25 141-172 250-347 250-194 0-353-131-353-295 0-94 53-180 139-233 0 0 3-3 3-3l-33-105 127 64c0 0 3 0 6-3 36-11 72-14 111-14 8 0 17 0 25 0-8 22-11 47-11 69-3 150 142 270 319 270m-211 105c28 0 50-22 50-47 0-25-22-47-50-47s-50 22-50 47c0 25 23 47 50 47m-244-97c-28 0-50 22-50 47 0 28 22 48 50 48 28 0 50-23 50-48-3-25-25-47-50-47m161-278c0-136 133-250 297-250 34 0 64 6 95 14 2 0 5 3 5 3l109-56-28 89c0 0 3 0 3 3 72 45 116 117 116 197 0 136-133 250-297 250-169 0-300-114-300-250m358 86c0 23 20 42 42 42 22 0 42-19 42-42 0-22-20-41-42-41-25 0-42 19-42 41m-208 0c0 23 19 42 42 42 22 0 41-19 41-42 0-22-19-41-41-41-23 0-42 19-42 41" horiz-adv-x="1000" />

<glyph glyph-name="back" unicode="&#xe80f;" d="M197 350l584-408v816l-584-408z" horiz-adv-x="1000" />

<glyph glyph-name="close_light" unicode="&#xe810;" d="M1000 794l-56 56-444-444-444 444-56-56 444-444-444-444 56-56 444 444 444-444 56 56-444 444 444 444z" horiz-adv-x="1000" />

<glyph glyph-name="guojihezuo" unicode="&#xe811;" d="M128 332l42-23c0 0 19-12 31 9l105 231c0 0 9 19-6 29l-47 25c0 0-16 7-25-10 0-7-109-234-109-234s-6-20 9-27l0 0z m697-23l44 21c0 0 21 9 11 30l-108 229c0 0-10 21-27 14l-46-23c0 0-15-6-7-25 4-6 108-237 108-237s11-17 25-9l0 0z m-594 2l16 32 49-67c0 0 33 8 44-13 0 0 12-14 6-38 0 0 7-6 7-8 0 0 23 6 36-11 0 0 14-10 12-31 0 0 9-4 11-9 0 0 23 5 33-8 0 0 13-13 11-28l21-16c0 0 19-2 23-17l19-13c0 0 29-12 31 19l-69 53c0 0-7 23 17 19l103-76c0 0 17-8 27 9 0 0 9 16-4 31l-111 82c0 0-9 23 16 21l129-96c0 0 19-7 27 8 0 0 11 15 0 28l-145 109c0 0-10 26 19 19l149-111c0 0 23-7 32 12 0 0 14 21-4 38l-210 191c0 0-38 19-63-21 0 0-4-67-74-78 0 0-48 4-36 36 0 0 13 19 13 61 0 0 2 28 21 55h-75l17 35h114c0 0 48 28 82 25 0 0 46-2 59-10 0 0 61-21 88-15l103-222-17-38c0 0 31-32 8-70-6-14-23-25-48-27 0 0 4-26-13-40 0 0-14-19-46-13 0 0 2-23-19-38 0 0-25-23-65 5 0 0-6-26-38-30 0 0-23-4-36 9 0 0-25-47-57-21 0 0-21 19-6 46 0 0-28-47-63-11 0 0-19 15-2 46 0 0-26-33-57-4 0 0-21 17-4 49 0 0-28-34-61-2 0 0-13 14-5 42l32 46-47 56 0 0z" horiz-adv-x="1000" />

<glyph glyph-name="xiaoqihezuo" unicode="&#xe812;" d="M224 312v-152l276-144 277 144v152l-277-144c0 0-276 144-276 144z m276 387l-434-227 434-228 356 186v-262h79v304l-435 227 0 0z" horiz-adv-x="1000" />

<glyph glyph-name="shangwukaifa" unicode="&#xe813;" d="M479 644l122-47v-191c0 0 86 36 50 101 48 15 105 0 51-101-54-102-239-164-239-164v402h16l0 0z m-45-26v-376c0 0-242-94-184 85 13 36 74 40 74 40s-57-98 41-56c3 44 0 250 0 250l69 57 0 0z m-76-430l76 15v-143c0 0-227-27-233 72 3 77 3 77 3 77s42-110 152-62c0 32 2 41 2 41l0 0z m111 25l116 58v-41c0 0 187 66 194 223 16-25 62-138-73-249-135-110-237-122-237-122v131l0 0z" horiz-adv-x="1000" />

<glyph glyph-name="yuyanfuwu" unicode="&#xe814;" d="M795 380c-38 0-71-25-83-59h-68c2 8 2 16 2 24 0 55-30 102-75 127l26 85c7-1 14-2 21-2 49 0 89 39 89 89 0 49-40 89-89 89-49 0-89-40-89-89 0-38 23-69 55-83l-25-83c-17 7-36 11-55 11-37 0-71-14-97-38l-133 132-1-1c15 16 24 37 24 61 0 49-39 89-89 89-49 0-89-40-89-89 0-49 40-89 89-89 24 0 46 9 61 24l-4-4 133-132c-24-26-38-60-38-97 0-32 11-62 29-86l-113-92c-16 22-42 35-71 35-49 0-89-40-89-89 0-49 40-89 89-89 49 0 89 40 89 89 0 15-4 30-11 43l115 93c26-29 63-47 105-47 21 0 42 5 60 13l40-90c-27-16-45-44-45-78 0-49 40-89 89-89 49 0 89 40 89 89 0 49-40 89-89 89-12 0-22-2-32-6l-40 91c32 19 57 50 67 87h66c-1-6-1-11-1-17 0-49 40-89 89-89 49 0 89 40 89 89-1 49-41 89-90 89l0 0z" horiz-adv-x="1000" />

<glyph glyph-name="arrow_circle" unicode="&#xe815;" d="M501 731c-210 0-381-171-381-381s171-381 381-381 381 171 381 381-171 381-381 381z m0-716c-185 0-336 150-336 335s151 336 336 336 336-151 335-336c0-185-150-335-335-335z m-46 557l-33-58 163-164-163-163 33-59 222 222-58 59-164 163z" horiz-adv-x="1000" />
</font>
</defs>
</svg>